Victor Lao’s Portfolio - World Trade Organization Export Map: Agricultural and Non-Agricultural Export Data for 2021 Visualized Using Leaflet
…
  summarise(Value = sum(Value)) %>%
  mutate(Reporting.Economy = ifelse(Reporting.Economy == "C\xf4te d'Ivoire",
                                    "Cote d'Ivoire",
                                    ifelse(Reporting.Economy == "T\xfcrkiye",
                                           "Turkiye",
                                           Reporting.Economy)),
         Partner.Economy = ifelse(Partner.Economy == "C\xf4te d'Ivoire",
                                  "Cote d'Ivoire",
                                  ifelse(Partner.Economy == "T\xfcrkiye",
                                         "Turkiye",
                                         ifelse(Partner.Economy == "Sao Tom\xe9 and Principe",
                                                "Sao Tome and Principe",
                                                Partner.Economy))))

# A tibble: 734 × 3
# Groups:   Reporting.Economy [113]
   Reporting.Economy   Partner.Economy           Value
   <chr>               <chr>                     <dbl>
 1 Albania             Cabo Verde              0.00339
 2 Albania             Montenegro             20.9    
 3 Angola              Bhutan                  0.0971 
 4 Angola              Djibouti                2.78   
 5 Angola              Gabon                   0.250  
 6 Angola              Gibraltar               0.259  
 7 Angola              Liberia                 7.30   
 8 Angola              Sao Tome and Principe   0.103  
 9 Angola              Togo                  952.     
10 Antigua and Barbuda Dominica                1.06   
# ℹ 724 more rows
…
